ReferenceID|SBranchID|SName|SAddress|STownID|STown|SCName|SCPhone|PuBranchID|PuName|PuAddress|PuTownID|PuTown|PuCName|PuCPhone|RBranchID|RName|RAddress|RTownID|RTown|RCName|RCPhone|DlTypeID|PaymentBy|PaymentType|BuyOut|BuyOutAccount|BuyOutFor|Value|Mass|ReturnDoc|Packages|Note|Content
1700320042|nasa-dexpres-sifra|"Saša Company"|"Pariske komune 23"|792047|"Niš (Medijana)"|"Saša Zivković"|060000000||"TiCo computers doo"|"Cara Dušana 65"|792047|"Niš (Medijana)"|"Milan Jović"|0600000000||"Miroslav Stanković"|"Cekavica bb"|723550|Cekavica|"Miroslav Stanković"|0600564356|2|1|1|0||-1|56580|0|0||Test|Odeća
100320048|nasa-dexpres-sifra|"Saša Company"|"Pariske komune 23"|792047|"Niš (Medijana)"|"Saša Zivković"|060000000||"Saša Company"|"Pariske komune 23"|792047|"Niš (Medijana)"|"Saša Zivković"|060000000||"Miroslav Stanković"|"Cekavica bb"|723550|Cekavica|"Miroslav Stanković"|0600564356|2|0|2|0||-1|0|0|0|TT0032004801#||Tehnika
